{
    "_meta": {
        "munit": "thousand",
        "year": 2013,
        "shorted": "\u041c\u0410\u0420\u041a\u0415\u0422-\u0422\u0420\u0415\u0419\u0414",
        "name": "\u0422\u043e\u0432\u0430\u0440\u0438\u0441\u0442\u0432\u043e \u0437 \u043e\u0431\u043c\u0435\u0436\u0435\u043d\u043e\u044e \u0432\u0456\u0434\u043f\u043e\u0432\u0456\u0434\u0430\u043b\u044c\u043d\u0456\u0441\u0442\u044e '\u041c\u0410\u0420\u041a\u0415\u0422-\u0422\u0420\u0415\u0419\u0414'"
    },
    "1": {
        "020": {
            "3": 11.8,
            "4": 11.8
        },
        "030": {
            "3": 8355.0,
            "4": 8074.1
        },
        "031": {
            "3": 12403.0,
            "4": 12468.0
        },
        "032": {
            "3": -4048.0,
            "4": -4393.9
        },
        "080": {
            "3": 8366.8,
            "4": 8085.9
        },
        "100": {
            "3": 39.4,
            "4": 40.7
        },
        "130": {
            "3": 5449.5,
            "4": 7318.0
        },
        "160": {
            "3": 1568.6,
            "4": 1966.0
        },
        "161": {
            "3": 1568.6,
            "4": 1966.0
        },
        "170": {
            "3": 26.5,
            "4": 44.2
        },
        "210": {
            "3": 0.6,
            "4": 0
        },
        "230": {
            "3": 42.9,
            "4": 45.3
        },
        "231": {
            "3": 0.6,
            "4": 0.1
        },
        "260": {
            "3": 7127.5,
            "4": 9414.2
        },
        "270": {
            "3": 6.8,
            "4": 0
        },
        "280": {
            "3": 15501.1,
            "4": 17501.1
        },
        "300": {
            "3": 3000.0,
            "4": 3000.0
        },
        "350": {
            "3": 437.7,
            "4": 899.5
        },
        "380": {
            "3": 3437.7,
            "4": 3899.5
        },
        "500": {
            "3": 265.5,
            "4": 0
        },
        "530": {
            "3": 11599.1,
            "4": 13379.3
        },
        "550": {
            "3": 47.5,
            "4": 66.4
        },
        "570": {
            "3": 26.2,
            "4": 19.7
        },
        "580": {
            "3": 67.3,
            "4": 67.6
        },
        "610": {
            "3": 57.8,
            "4": 67.6
        },
        "620": {
            "3": 12063.4,
            "4": 13600.6
        },
        "640": {
            "3": 15501.1,
            "4": 17500.1
        }
    },
    "2": {
        "010": {
            "3": 17807.4,
            "4": 19207.9
        },
        "020": {
            "3": -2967.9,
            "4": -3201.3
        },
        "030": {
            "3": 14839.5,
            "4": 16006.6
        },
        "040": {
            "3": 3397.2,
            "4": 2959.0
        },
        "050": {
            "3": 4.2,
            "4": 4.6
        },
        "070": {
            "3": 18240.9,
            "4": 18970.2
        },
        "080": {
            "3": -13297.2,
            "4": -14710.0
        },
        "090": {
            "3": -4220.8,
            "4": -3861.1
        },
        "100": {
            "3": -95.3,
            "4": -106.5
        },
        "120": {
            "3": -17613.3,
            "4": -18677.6
        },
        "130": {
            "3": 627.6,
            "4": 292.6
        },
        "140": {
            "3": -165.8,
            "4": -81.4
        },
        "150": {
            "3": 461.8,
            "4": 211.2
        }
    }
}